(module Continuum_logo (layer F.Cu) (tedit 5B1ED636)
  (fp_text reference G*** (at 0 -5.08) (layer F.SilkS) hide
    (effects (font (thickness 0.3)))
  )
  (fp_text value LOGO (at 0 5.08) (layer F.SilkS) hide
    (effects (font (thickness 0.3)))
  )
  (fp_poly (pts (xy 2.506995 -3.734583) (xy 2.536967 -3.544875) (xy 2.54 -3.449366) (xy 2.566386 -3.17955)
    (xy 2.657863 -3.02164) (xy 2.709333 -2.982982) (xy 2.842764 -2.850896) (xy 2.878666 -2.750949)
    (xy 2.929327 -2.667556) (xy 3.100881 -2.629651) (xy 3.259666 -2.624666) (xy 3.486886 -2.60785)
    (xy 3.623184 -2.565303) (xy 3.640666 -2.54) (xy 3.564992 -2.489507) (xy 3.373528 -2.459218)
    (xy 3.259666 -2.455333) (xy 3.021571 -2.444254) (xy 2.908983 -2.398248) (xy 2.878812 -2.298164)
    (xy 2.878666 -2.286) (xy 2.903595 -2.18018) (xy 3.007108 -2.130141) (xy 3.232296 -2.116731)
    (xy 3.259666 -2.116666) (xy 3.486886 -2.09985) (xy 3.623184 -2.057303) (xy 3.640666 -2.032)
    (xy 3.564992 -1.981507) (xy 3.373528 -1.951218) (xy 3.259666 -1.947333) (xy 3.008544 -1.930713)
    (xy 2.894158 -1.874199) (xy 2.878666 -1.820333) (xy 2.928528 -1.736626) (xy 3.098069 -1.698497)
    (xy 3.259666 -1.693333) (xy 3.486886 -1.676517) (xy 3.623184 -1.633969) (xy 3.640666 -1.608666)
    (xy 3.564992 -1.558173) (xy 3.373528 -1.527885) (xy 3.259666 -1.524) (xy 3.021571 -1.51292)
    (xy 2.908983 -1.466915) (xy 2.878812 -1.366831) (xy 2.878666 -1.354666) (xy 2.903595 -1.248847)
    (xy 3.007108 -1.198807) (xy 3.232296 -1.185398) (xy 3.259666 -1.185333) (xy 3.486886 -1.168517)
    (xy 3.623184 -1.125969) (xy 3.640666 -1.100666) (xy 3.564992 -1.050173) (xy 3.373528 -1.019885)
    (xy 3.259666 -1.016) (xy 3.021571 -1.00492) (xy 2.908983 -0.958915) (xy 2.878812 -0.858831)
    (xy 2.878666 -0.846666) (xy 2.903595 -0.740847) (xy 3.007108 -0.690807) (xy 3.232296 -0.677398)
    (xy 3.259666 -0.677333) (xy 3.486886 -0.660517) (xy 3.623184 -0.617969) (xy 3.640666 -0.592666)
    (xy 3.564992 -0.542173) (xy 3.373528 -0.511885) (xy 3.259666 -0.508) (xy 3.021571 -0.49692)
    (xy 2.908983 -0.450915) (xy 2.878812 -0.350831) (xy 2.878666 -0.338666) (xy 2.903595 -0.232847)
    (xy 3.007108 -0.182807) (xy 3.232296 -0.169398) (xy 3.259666 -0.169333) (xy 3.486886 -0.152517)
    (xy 3.623184 -0.109969) (xy 3.640666 -0.084666) (xy 3.564992 -0.034173) (xy 3.373528 -0.003885)
    (xy 3.259666 0) (xy 3.021571 0.01108) (xy 2.908983 0.057085) (xy 2.878812 0.157169)
    (xy 2.878666 0.169334) (xy 2.903595 0.275153) (xy 3.007108 0.325193) (xy 3.232296 0.338602)
    (xy 3.259666 0.338667) (xy 3.486886 0.355483) (xy 3.623184 0.398031) (xy 3.640666 0.423334)
    (xy 3.564992 0.473827) (xy 3.373528 0.504115) (xy 3.259666 0.508) (xy 3.021571 0.51908)
    (xy 2.908983 0.565085) (xy 2.878812 0.665169) (xy 2.878666 0.677334) (xy 2.903595 0.783153)
    (xy 3.007108 0.833193) (xy 3.232296 0.846602) (xy 3.259666 0.846667) (xy 3.486886 0.863483)
    (xy 3.623184 0.906031) (xy 3.640666 0.931334) (xy 3.564992 0.981827) (xy 3.373528 1.012115)
    (xy 3.259666 1.016) (xy 3.008544 1.032621) (xy 2.894158 1.089134) (xy 2.878666 1.143)
    (xy 2.928528 1.226708) (xy 3.098069 1.264836) (xy 3.259666 1.27) (xy 3.486886 1.286817)
    (xy 3.623184 1.329364) (xy 3.640666 1.354667) (xy 3.564992 1.40516) (xy 3.373528 1.435449)
    (xy 3.259666 1.439334) (xy 3.021571 1.450413) (xy 2.908983 1.496419) (xy 2.878812 1.596502)
    (xy 2.878666 1.608667) (xy 2.903595 1.714487) (xy 3.007108 1.764526) (xy 3.232296 1.777936)
    (xy 3.259666 1.778) (xy 3.486886 1.794817) (xy 3.623184 1.837364) (xy 3.640666 1.862667)
    (xy 3.564992 1.91316) (xy 3.373528 1.943449) (xy 3.259666 1.947334) (xy 3.021571 1.958413)
    (xy 2.908983 2.004419) (xy 2.878812 2.104502) (xy 2.878666 2.116667) (xy 2.903595 2.222487)
    (xy 3.007108 2.272526) (xy 3.232296 2.285936) (xy 3.259666 2.286) (xy 3.486886 2.302817)
    (xy 3.623184 2.345364) (xy 3.640666 2.370667) (xy 3.564992 2.42116) (xy 3.373528 2.451449)
    (xy 3.259666 2.455334) (xy 3.008066 2.472125) (xy 2.893705 2.528987) (xy 2.878666 2.581616)
    (xy 2.813288 2.721954) (xy 2.709333 2.813649) (xy 2.59038 2.944133) (xy 2.543058 3.168506)
    (xy 2.54 3.280033) (xy 2.522294 3.500086) (xy 2.477756 3.627748) (xy 2.455333 3.640667)
    (xy 2.40484 3.564993) (xy 2.374551 3.373529) (xy 2.370666 3.259667) (xy 2.359587 3.021572)
    (xy 2.313581 2.908984) (xy 2.213497 2.878812) (xy 2.201333 2.878667) (xy 2.095513 2.903596)
    (xy 2.045474 3.007109) (xy 2.032064 3.232296) (xy 2.032 3.259667) (xy 2.015183 3.486886)
    (xy 1.972636 3.623184) (xy 1.947333 3.640667) (xy 1.89684 3.564993) (xy 1.866551 3.373529)
    (xy 1.862666 3.259667) (xy 1.851587 3.021572) (xy 1.805581 2.908984) (xy 1.705497 2.878812)
    (xy 1.693333 2.878667) (xy 1.587513 2.903596) (xy 1.537474 3.007109) (xy 1.524064 3.232296)
    (xy 1.524 3.259667) (xy 1.507183 3.486886) (xy 1.464636 3.623184) (xy 1.439333 3.640667)
    (xy 1.38884 3.564993) (xy 1.358551 3.373529) (xy 1.354666 3.259667) (xy 1.343587 3.021572)
    (xy 1.297581 2.908984) (xy 1.197497 2.878812) (xy 1.185333 2.878667) (xy 1.079513 2.903596)
    (xy 1.029474 3.007109) (xy 1.016064 3.232296) (xy 1.016 3.259667) (xy 0.999183 3.486886)
    (xy 0.956636 3.623184) (xy 0.931333 3.640667) (xy 0.88084 3.564993) (xy 0.850551 3.373529)
    (xy 0.846666 3.259667) (xy 0.835587 3.021572) (xy 0.789581 2.908984) (xy 0.689497 2.878812)
    (xy 0.677333 2.878667) (xy 0.571513 2.903596) (xy 0.521474 3.007109) (xy 0.508064 3.232296)
    (xy 0.508 3.259667) (xy 0.491183 3.486886) (xy 0.448636 3.623184) (xy 0.423333 3.640667)
    (xy 0.37284 3.564993) (xy 0.342551 3.373529) (xy 0.338666 3.259667) (xy 0.322046 3.008545)
    (xy 0.265532 2.894159) (xy 0.211666 2.878667) (xy 0.127959 2.928529) (xy 0.08983 3.09807)
    (xy 0.084666 3.259667) (xy 0.06785 3.486886) (xy 0.025302 3.623184) (xy 0 3.640667)
    (xy -0.050494 3.564993) (xy -0.080782 3.373529) (xy -0.084667 3.259667) (xy -0.095747 3.021572)
    (xy -0.141752 2.908984) (xy -0.241836 2.878812) (xy -0.254 2.878667) (xy -0.35982 2.903596)
    (xy -0.40986 3.007109) (xy -0.423269 3.232296) (xy -0.423334 3.259667) (xy -0.44015 3.486886)
    (xy -0.482698 3.623184) (xy -0.508 3.640667) (xy -0.558494 3.564993) (xy -0.588782 3.373529)
    (xy -0.592667 3.259667) (xy -0.603747 3.021572) (xy -0.649752 2.908984) (xy -0.749836 2.878812)
    (xy -0.762 2.878667) (xy -0.86782 2.903596) (xy -0.91786 3.007109) (xy -0.931269 3.232296)
    (xy -0.931334 3.259667) (xy -0.94815 3.486886) (xy -0.990698 3.623184) (xy -1.016 3.640667)
    (xy -1.066494 3.564993) (xy -1.096782 3.373529) (xy -1.100667 3.259667) (xy -1.111747 3.021572)
    (xy -1.157752 2.908984) (xy -1.257836 2.878812) (xy -1.27 2.878667) (xy -1.37582 2.903596)
    (xy -1.42586 3.007109) (xy -1.439269 3.232296) (xy -1.439334 3.259667) (xy -1.45615 3.486886)
    (xy -1.498698 3.623184) (xy -1.524 3.640667) (xy -1.574494 3.564993) (xy -1.604782 3.373529)
    (xy -1.608667 3.259667) (xy -1.625288 3.008545) (xy -1.681801 2.894159) (xy -1.735667 2.878667)
    (xy -1.819375 2.928529) (xy -1.857503 3.09807) (xy -1.862667 3.259667) (xy -1.879484 3.486886)
    (xy -1.922031 3.623184) (xy -1.947334 3.640667) (xy -1.997827 3.564993) (xy -2.028116 3.373529)
    (xy -2.032 3.259667) (xy -2.04308 3.021572) (xy -2.089086 2.908984) (xy -2.189169 2.878812)
    (xy -2.201334 2.878667) (xy -2.307154 2.903596) (xy -2.357193 3.007109) (xy -2.370603 3.232296)
    (xy -2.370667 3.259667) (xy -2.387484 3.486886) (xy -2.430031 3.623184) (xy -2.455334 3.640667)
    (xy -2.506384 3.565115) (xy -2.536532 3.374484) (xy -2.54 3.269542) (xy -2.555 3.026431)
    (xy -2.61376 2.902044) (xy -2.715617 2.852492) (xy -2.879414 2.739339) (xy -2.937159 2.63095)
    (xy -2.998454 2.517766) (xy -3.136121 2.466177) (xy -3.354209 2.455334) (xy -3.577979 2.438097)
    (xy -3.710132 2.394608) (xy -3.725334 2.370667) (xy -3.64966 2.320174) (xy -3.458196 2.289885)
    (xy -3.344334 2.286) (xy -3.106239 2.274921) (xy -2.993651 2.228915) (xy -2.963479 2.128831)
    (xy -2.963334 2.116667) (xy -2.988263 2.010847) (xy -3.091776 1.960808) (xy -3.316963 1.947398)
    (xy -3.344334 1.947334) (xy -3.571553 1.930517) (xy -3.707851 1.88797) (xy -3.725334 1.862667)
    (xy -3.64966 1.812174) (xy -3.458196 1.781885) (xy -3.344334 1.778) (xy -3.106239 1.766921)
    (xy -2.993651 1.720915) (xy -2.963479 1.620831) (xy -2.963334 1.608667) (xy -2.988263 1.502847)
    (xy -3.091776 1.452808) (xy -3.316963 1.439398) (xy -3.344334 1.439334) (xy -3.571553 1.422517)
    (xy -3.707851 1.37997) (xy -3.725334 1.354667) (xy -3.64966 1.304174) (xy -3.526289 1.284657)
    (xy -1.439334 1.284657) (xy -0.917914 1.827662) (xy -0.678228 2.069667) (xy -0.479652 2.256136)
    (xy -0.352647 2.359062) (xy -0.327281 2.370667) (xy -0.233528 2.324188) (xy -0.035176 2.198706)
    (xy 0.235676 2.015151) (xy 0.455498 1.860258) (xy 0.758488 1.635188) (xy 1.007592 1.434497)
    (xy 1.17092 1.284785) (xy 1.216875 1.225258) (xy 1.201217 1.125204) (xy 1.065272 1.1047)
    (xy 0.837249 1.161924) (xy 0.602575 1.264945) (xy 0.280564 1.429223) (xy -0.156052 0.987116)
    (xy -0.592667 0.545009) (xy -0.592667 -0.246839) (xy -0.581706 -0.641764) (xy -0.552461 -1.013222)
    (xy -0.510393 -1.300024) (xy -0.492055 -1.374501) (xy -0.417991 -1.58597) (xy -0.332751 -1.673104)
    (xy -0.183856 -1.675786) (xy -0.110251 -1.664683) (xy 0.163329 -1.579935) (xy 0.416041 -1.444526)
    (xy 0.611874 -1.326593) (xy 0.763945 -1.27083) (xy 0.77507 -1.270151) (xy 0.875367 -1.336529)
    (xy 1.019211 -1.501511) (xy 1.170749 -1.71414) (xy 1.294129 -1.923455) (xy 1.353498 -2.0785)
    (xy 1.354666 -2.093952) (xy 1.282572 -2.172874) (xy 1.100747 -2.279718) (xy 0.860877 -2.391234)
    (xy 0.614647 -2.484172) (xy 0.413742 -2.535282) (xy 0.365304 -2.539003) (xy 0.233778 -2.494526)
    (xy -0.001744 -2.375043) (xy -0.304825 -2.200162) (xy -0.558672 -2.041788) (xy -0.857251 -1.848101)
    (xy -1.079169 -1.686647) (xy -1.235813 -1.52844) (xy -1.338569 -1.344494) (xy -1.398822 -1.105821)
    (xy -1.42796 -0.783436) (xy -1.437368 -0.348352) (xy -1.438402 0.197828) (xy -1.439334 1.284657)
    (xy -3.526289 1.284657) (xy -3.458196 1.273885) (xy -3.344334 1.27) (xy -3.093212 1.25338)
    (xy -2.978826 1.196866) (xy -2.963334 1.143) (xy -3.013196 1.059293) (xy -3.182737 1.021164)
    (xy -3.344334 1.016) (xy -3.571553 0.999184) (xy -3.707851 0.956636) (xy -3.725334 0.931334)
    (xy -3.64966 0.88084) (xy -3.458196 0.850552) (xy -3.344334 0.846667) (xy -3.106239 0.835587)
    (xy -2.993651 0.789582) (xy -2.963479 0.689498) (xy -2.963334 0.677334) (xy -2.988263 0.571514)
    (xy -3.091776 0.521474) (xy -3.316963 0.508065) (xy -3.344334 0.508) (xy -3.571553 0.491184)
    (xy -3.707851 0.448636) (xy -3.725334 0.423334) (xy -3.64966 0.37284) (xy -3.458196 0.342552)
    (xy -3.344334 0.338667) (xy -3.106239 0.327587) (xy -2.993651 0.281582) (xy -2.963479 0.181498)
    (xy -2.963334 0.169334) (xy -2.988263 0.063514) (xy -3.091776 0.013474) (xy -3.316963 0.000065)
    (xy -3.344334 0) (xy -3.571553 -0.016816) (xy -3.707851 -0.059364) (xy -3.725334 -0.084666)
    (xy -3.64966 -0.13516) (xy -3.458196 -0.165448) (xy -3.344334 -0.169333) (xy -3.106239 -0.180413)
    (xy -2.993651 -0.226418) (xy -2.963479 -0.326502) (xy -2.963334 -0.338666) (xy -2.988263 -0.444486)
    (xy -3.091776 -0.494526) (xy -3.316963 -0.507935) (xy -3.344334 -0.508) (xy -3.571553 -0.524816)
    (xy -3.707851 -0.567364) (xy -3.725334 -0.592666) (xy -3.64966 -0.64316) (xy -3.458196 -0.673448)
    (xy -3.344334 -0.677333) (xy -3.093212 -0.693954) (xy -2.978826 -0.750467) (xy -2.963334 -0.804333)
    (xy -3.013196 -0.888041) (xy -3.182737 -0.926169) (xy -3.344334 -0.931333) (xy -3.571553 -0.94815)
    (xy -3.707851 -0.990697) (xy -3.725334 -1.016) (xy -3.64966 -1.066493) (xy -3.458196 -1.096782)
    (xy -3.344334 -1.100666) (xy -3.106239 -1.111746) (xy -2.993651 -1.157752) (xy -2.963479 -1.257835)
    (xy -2.963334 -1.27) (xy -2.988263 -1.37582) (xy -3.091776 -1.425859) (xy -3.316963 -1.439269)
    (xy -3.344334 -1.439333) (xy -3.571553 -1.45615) (xy -3.707851 -1.498697) (xy -3.725334 -1.524)
    (xy -3.64966 -1.574493) (xy -3.458196 -1.604782) (xy -3.344334 -1.608666) (xy -3.106239 -1.619746)
    (xy -2.993651 -1.665752) (xy -2.963479 -1.765835) (xy -2.963334 -1.778) (xy -2.988263 -1.88382)
    (xy -3.091776 -1.933859) (xy -3.316963 -1.947269) (xy -3.344334 -1.947333) (xy -3.571553 -1.96415)
    (xy -3.707851 -2.006697) (xy -3.725334 -2.032) (xy -3.64966 -2.082493) (xy -3.458196 -2.112782)
    (xy -3.344334 -2.116666) (xy -3.106239 -2.127746) (xy -2.993651 -2.173752) (xy -2.963479 -2.273835)
    (xy -2.963334 -2.286) (xy -2.988263 -2.39182) (xy -3.091776 -2.441859) (xy -3.316963 -2.455269)
    (xy -3.344334 -2.455333) (xy -3.571553 -2.47215) (xy -3.707851 -2.514697) (xy -3.725334 -2.54)
    (xy -3.697563 -2.558765) (xy -2.688229 -2.558765) (xy -2.645729 -2.439229) (xy -2.628194 -2.417249)
    (xy -2.510128 -2.308782) (xy -2.455334 -2.286) (xy -2.354715 -2.343575) (xy -2.282474 -2.417249)
    (xy -2.220461 -2.54193) (xy -2.291558 -2.665852) (xy -2.31444 -2.689392) (xy -2.433468 -2.784315)
    (xy -2.531346 -2.75058) (xy -2.596227 -2.689392) (xy -2.688229 -2.558765) (xy -3.697563 -2.558765)
    (xy -3.649782 -2.59105) (xy -3.459151 -2.621198) (xy -3.354209 -2.624667) (xy -3.111098 -2.639666)
    (xy -2.986711 -2.698426) (xy -2.937159 -2.800283) (xy -2.824006 -2.96408) (xy -2.715617 -3.021825)
    (xy -2.602433 -3.08312) (xy -2.550844 -3.220787) (xy -2.54 -3.438875) (xy -2.522764 -3.662645)
    (xy -2.479275 -3.794798) (xy -2.455334 -3.81) (xy -2.404841 -3.734326) (xy -2.374552 -3.542862)
    (xy -2.370667 -3.429) (xy -2.359588 -3.190905) (xy -2.313582 -3.078317) (xy -2.213498 -3.048145)
    (xy -2.201334 -3.048) (xy -2.095514 -3.072929) (xy -2.045475 -3.176442) (xy -2.032065 -3.401629)
    (xy -2.032 -3.429) (xy -2.015184 -3.656219) (xy -1.972637 -3.792517) (xy -1.947334 -3.81)
    (xy -1.896841 -3.734326) (xy -1.866552 -3.542862) (xy -1.862667 -3.429) (xy -1.851588 -3.190905)
    (xy -1.805582 -3.078317) (xy -1.705498 -3.048145) (xy -1.693334 -3.048) (xy -1.587514 -3.072929)
    (xy -1.537475 -3.176442) (xy -1.524065 -3.401629) (xy -1.524 -3.429) (xy -1.507184 -3.656219)
    (xy -1.464637 -3.792517) (xy -1.439334 -3.81) (xy -1.388841 -3.734326) (xy -1.358552 -3.542862)
    (xy -1.354667 -3.429) (xy -1.343588 -3.190905) (xy -1.297582 -3.078317) (xy -1.197498 -3.048145)
    (xy -1.185334 -3.048) (xy -1.079514 -3.072929) (xy -1.029475 -3.176442) (xy -1.016065 -3.401629)
    (xy -1.016 -3.429) (xy -0.999184 -3.656219) (xy -0.956637 -3.792517) (xy -0.931334 -3.81)
    (xy -0.880841 -3.734326) (xy -0.850552 -3.542862) (xy -0.846667 -3.429) (xy -0.830047 -3.177878)
    (xy -0.773533 -3.063492) (xy -0.719667 -3.048) (xy -0.63596 -3.097862) (xy -0.597831 -3.267403)
    (xy -0.592667 -3.429) (xy -0.575851 -3.656219) (xy -0.533303 -3.792517) (xy -0.508 -3.81)
    (xy -0.457507 -3.734326) (xy -0.427219 -3.542862) (xy -0.423334 -3.429) (xy -0.412254 -3.190905)
    (xy -0.366249 -3.078317) (xy -0.266165 -3.048145) (xy -0.254 -3.048) (xy -0.148181 -3.072929)
    (xy -0.098141 -3.176442) (xy -0.084732 -3.401629) (xy -0.084667 -3.429) (xy -0.067851 -3.656219)
    (xy -0.025303 -3.792517) (xy 0 -3.81) (xy 0.050493 -3.734326) (xy 0.080781 -3.542862)
    (xy 0.084666 -3.429) (xy 0.095746 -3.190905) (xy 0.141751 -3.078317) (xy 0.241835 -3.048145)
    (xy 0.254 -3.048) (xy 0.359819 -3.072929) (xy 0.409859 -3.176442) (xy 0.423268 -3.401629)
    (xy 0.423333 -3.429) (xy 0.440149 -3.656219) (xy 0.482697 -3.792517) (xy 0.508 -3.81)
    (xy 0.558493 -3.734326) (xy 0.588781 -3.542862) (xy 0.592666 -3.429) (xy 0.603746 -3.190905)
    (xy 0.649751 -3.078317) (xy 0.749835 -3.048145) (xy 0.762 -3.048) (xy 0.867819 -3.072929)
    (xy 0.917859 -3.176442) (xy 0.931268 -3.401629) (xy 0.931333 -3.429) (xy 0.948149 -3.656219)
    (xy 0.990697 -3.792517) (xy 1.016 -3.81) (xy 1.066493 -3.734326) (xy 1.096781 -3.542862)
    (xy 1.100666 -3.429) (xy 1.117287 -3.177878) (xy 1.1738 -3.063492) (xy 1.227666 -3.048)
    (xy 1.311374 -3.097862) (xy 1.349502 -3.267403) (xy 1.354666 -3.429) (xy 1.371483 -3.656219)
    (xy 1.41403 -3.792517) (xy 1.439333 -3.81) (xy 1.489826 -3.734326) (xy 1.520115 -3.542862)
    (xy 1.524 -3.429) (xy 1.535079 -3.190905) (xy 1.581085 -3.078317) (xy 1.681168 -3.048145)
    (xy 1.693333 -3.048) (xy 1.799153 -3.072929) (xy 1.849192 -3.176442) (xy 1.862602 -3.401629)
    (xy 1.862666 -3.429) (xy 1.879483 -3.656219) (xy 1.92203 -3.792517) (xy 1.947333 -3.81)
    (xy 1.997826 -3.734326) (xy 2.028115 -3.542862) (xy 2.032 -3.429) (xy 2.043079 -3.190905)
    (xy 2.089085 -3.078317) (xy 2.189168 -3.048145) (xy 2.201333 -3.048) (xy 2.307153 -3.072929)
    (xy 2.357192 -3.176442) (xy 2.370602 -3.401629) (xy 2.370666 -3.429) (xy 2.387483 -3.656219)
    (xy 2.43003 -3.792517) (xy 2.455333 -3.81) (xy 2.506995 -3.734583)) (layer F.SilkS) (width 0.01))
  (fp_poly (pts (xy -2.373127 -2.560237) (xy -2.370667 -2.54) (xy -2.435096 -2.457793) (xy -2.455334 -2.455333)
    (xy -2.53754 -2.519762) (xy -2.54 -2.54) (xy -2.475571 -2.622206) (xy -2.455334 -2.624666)
    (xy -2.373127 -2.560237)) (layer F.SilkS) (width 0.01))
)
