(module JST_XH_B04B-XH-A_04x2.50mm_Straight (layer F.Cu) (tedit 58EAE7F0)
  (descr "JST XH series connector, B04B-XH-A, top entry type, through hole")
  (tags "connector jst xh tht top vertical 2.50mm")
  (fp_text reference REF** (at 3.75 -3.5) (layer F.SilkS)
    (effects (font (size 1 1) (thickness 0.15)))
  )
  (fp_text value JST_XH_B04B-XH-A_04x2.50mm_Straight (at 3.75 4.5) (layer F.Fab)
    (effects (font (size 1 1) (thickness 0.15)))
  )
  (fp_line (start -2.45 -2.35) (end -2.45 3.4) (layer F.Fab) (width 0.1))
  (fp_line (start -2.45 3.4) (end 9.95 3.4) (layer F.Fab) (width 0.1))
  (fp_line (start 9.95 3.4) (end 9.95 -2.35) (layer F.Fab) (width 0.1))
  (fp_line (start 9.95 -2.35) (end -2.45 -2.35) (layer F.Fab) (width 0.1))
  (fp_line (start -2.95 -2.85) (end -2.95 3.9) (layer F.CrtYd) (width 0.05))
  (fp_line (start -2.95 3.9) (end 10.45 3.9) (layer F.CrtYd) (width 0.05))
  (fp_line (start 10.45 3.9) (end 10.45 -2.85) (layer F.CrtYd) (width 0.05))
  (fp_line (start 10.45 -2.85) (end -2.95 -2.85) (layer F.CrtYd) (width 0.05))
  (fp_line (start -2.55 -2.45) (end -2.55 3.5) (layer F.SilkS) (width 0.12))
  (fp_line (start -2.55 3.5) (end 10.05 3.5) (layer F.SilkS) (width 0.12))
  (fp_line (start 10.05 3.5) (end 10.05 -2.45) (layer F.SilkS) (width 0.12))
  (fp_line (start 10.05 -2.45) (end -2.55 -2.45) (layer F.SilkS) (width 0.12))
  (fp_line (start 0.75 -2.45) (end 0.75 -1.7) (layer F.SilkS) (width 0.12))
  (fp_line (start 0.75 -1.7) (end 6.75 -1.7) (layer F.SilkS) (width 0.12))
  (fp_line (start 6.75 -1.7) (end 6.75 -2.45) (layer F.SilkS) (width 0.12))
  (fp_line (start 6.75 -2.45) (end 0.75 -2.45) (layer F.SilkS) (width 0.12))
  (fp_line (start -2.55 -2.45) (end -2.55 -1.7) (layer F.SilkS) (width 0.12))
  (fp_line (start -2.55 -1.7) (end -0.75 -1.7) (layer F.SilkS) (width 0.12))
  (fp_line (start -0.75 -1.7) (end -0.75 -2.45) (layer F.SilkS) (width 0.12))
  (fp_line (start -0.75 -2.45) (end -2.55 -2.45) (layer F.SilkS) (width 0.12))
  (fp_line (start 8.25 -2.45) (end 8.25 -1.7) (layer F.SilkS) (width 0.12))
  (fp_line (start 8.25 -1.7) (end 10.05 -1.7) (layer F.SilkS) (width 0.12))
  (fp_line (start 10.05 -1.7) (end 10.05 -2.45) (layer F.SilkS) (width 0.12))
  (fp_line (start 10.05 -2.45) (end 8.25 -2.45) (layer F.SilkS) (width 0.12))
  (fp_line (start -2.55 -0.2) (end -1.8 -0.2) (layer F.SilkS) (width 0.12))
  (fp_line (start -1.8 -0.2) (end -1.8 2.75) (layer F.SilkS) (width 0.12))
  (fp_line (start -1.8 2.75) (end 3.75 2.75) (layer F.SilkS) (width 0.12))
  (fp_line (start 10.05 -0.2) (end 9.3 -0.2) (layer F.SilkS) (width 0.12))
  (fp_line (start 9.3 -0.2) (end 9.3 2.75) (layer F.SilkS) (width 0.12))
  (fp_line (start 9.3 2.75) (end 3.75 2.75) (layer F.SilkS) (width 0.12))
  (fp_line (start -0.35 -2.75) (end -2.85 -2.75) (layer F.SilkS) (width 0.12))
  (fp_line (start -2.85 -2.75) (end -2.85 -0.25) (layer F.SilkS) (width 0.12))
  (fp_line (start -0.35 -2.75) (end -2.85 -2.75) (layer F.Fab) (width 0.1))
  (fp_line (start -2.85 -2.75) (end -2.85 -0.25) (layer F.Fab) (width 0.1))
  (pad 1 thru_hole rect (at 0 0) (size 1.75 1.75) (drill 1.0) (layers *.Cu *.Mask))
  (pad 2 thru_hole circle (at 2.5 0) (size 1.75 1.75) (drill 1.0) (layers *.Cu *.Mask))
  (pad 3 thru_hole circle (at 5 0) (size 1.75 1.75) (drill 1.0) (layers *.Cu *.Mask))
  (pad 4 thru_hole circle (at 7.5 0) (size 1.75 1.75) (drill 1.0) (layers *.Cu *.Mask))
  (fp_text user %R (at 3.75 2.5) (layer F.Fab)
    (effects (font (size 1 1) (thickness 0.15)))
  )
  (model ${KIPRJMOD}/lib_fp.3dshapes/JST_XH_B04B-XH-A_04x2.50mm_Straight.wrl
    (at (xyz 0 0 0))
    (scale (xyz 1 1 1))
    (rotate (xyz 0 0 0))
  )
)