(module lib_fp:SJ-3523-SMT (layer F.Cu) (tedit 5B3F7491)
  (fp_text reference REF** (at 5.1 -3.95) (layer F.SilkS)
    (effects (font (size 1 1) (thickness 0.15)))
  )
  (fp_text value SJ-3523-SMT (at 0 1.95) (layer F.Fab)
    (effects (font (size 1 1) (thickness 0.15)))
  )
  (fp_line (start 7.15 -2.9) (end 7.15 2.9) (layer F.Fab) (width 0.15))
  (fp_line (start 7.15 2.9) (end -7.15 2.9) (layer F.Fab) (width 0.15))
  (fp_line (start -7.15 2.9) (end -7.15 1.9) (layer F.Fab) (width 0.15))
  (fp_line (start -7.15 1.9) (end -9.65 1.9) (layer F.Fab) (width 0.15))
  (fp_line (start -9.65 1.9) (end -9.65 -1.9) (layer F.Fab) (width 0.15))
  (fp_line (start -9.65 -1.9) (end -7.15 -1.9) (layer F.Fab) (width 0.15))
  (fp_line (start -7.15 -1.9) (end -7.15 -2.9) (layer F.Fab) (width 0.15))
  (fp_line (start -7.15 -2.9) (end 7.15 -2.9) (layer F.Fab) (width 0.15))
  (fp_line (start -9.75 -2) (end -9.75 2) (layer F.SilkS) (width 0.15))
  (fp_line (start -7.25 2) (end -9.75 2) (layer F.SilkS) (width 0.15))
  (fp_line (start -7.25 -2) (end -9.75 -2) (layer F.SilkS) (width 0.15))
  (fp_line (start -7.25 2) (end -7.25 3) (layer F.SilkS) (width 0.15))
  (fp_line (start -7.25 -3) (end -7.25 -2) (layer F.SilkS) (width 0.15))
  (fp_line (start 7.25 3) (end -7.25 3) (layer F.SilkS) (width 0.15))
  (fp_line (start 7.25 -3) (end 7.25 3) (layer F.SilkS) (width 0.15))
  (fp_line (start 7.25 -3) (end -7.25 -3) (layer F.SilkS) (width 0.15))
  (fp_text user %R (at 0 -1.8) (layer F.Fab)
    (effects (font (size 1 1) (thickness 0.15)))
  )
  (pad 1 smd rect (at 4.55 3.7) (size 2.8 2.8) (layers F.Cu F.Paste F.Mask))
  (pad 3 smd rect (at -4.85 3.7) (size 2.2 2.8) (layers F.Cu F.Paste F.Mask))
  (pad "" np_thru_hole circle (at -3.75 0) (size 1.7 1.7) (drill 1.7) (layers *.Cu *.Mask))
  (pad "" np_thru_hole circle (at 3.25 0) (size 1.7 1.7) (drill 1.7) (layers *.Cu *.Mask))
  (pad 2 smd rect (at -2.85 -3.7) (size 2.2 2.8) (layers F.Cu F.Paste F.Mask))
  (model ${KIPRJMOD}/lib_fp.3dshapes/SJ-3523-SMT.wrl
    (at (xyz -0.383858 0.177165 -0.031496))
    (scale (xyz 0.393701 0.393701 0.393701))
    (rotate (xyz -90 0 0))
  )
)
